Time	Node	SegmentNumber	SegmentRepID	SegmentExperiencedBitrate(bit/s)	BufferLevel(s)	StallingTime(msec)	SegmentDepIds
100.923	3	0	13	7164668	0	922	
102.923	3	1	13	6982212	2	0	
104.923	3	2	13	7427118	4	0	
106.923	3	3	17	8492914	4	0	
108.923	3	4	19	8848945	4	0	
110.923	3	5	19	8786239	8	0	
112.923	3	6	19	8756390	10	0	
114.923	3	7	19	8736337	10	0	
116.923	3	8	19	7840563	10	0	
118.923	3	9	19	7434198	10	0	
120.923	3	10	19	7750354	10	0	
122.923	3	11	19	8094450	12	0	
124.923	3	12	19	8857773	14	0	
126.923	3	13	19	8815655	16	0	
128.923	3	14	19	8819724	18	0	
130.923	3	15	19	8866631	18	0	
132.923	3	16	19	8805068	18	0	
134.923	3	17	19	8555740	20	0	
136.923	3	18	19	8537690	24	0	
138.923	3	19	19	8455542	28	0	
140.923	3	20	19	8334576	28	0	
142.923	3	21	19	8246509	28	0	
144.923	3	22	19	8489701	28	0	
146.923	3	23	19	8457237	28	0	
148.923	3	24	19	8792111	28	0	
150.923	3	25	19	8657149	28	0	
152.923	3	26	19	8613498	28	0	
154.923	3	27	19	8767162	28	0	
156.923	3	28	19	7305664	28	0	
158.923	3	29	19	6993009	28	0	
160.923	3	30	19	7697587	28	0	
162.923	3	31	19	7996670	28	0	
164.923	3	32	19	8045361	28	0	
166.923	3	33	19	8374773	28	0	
168.923	3	34	19	8191340	28	0	
170.923	3	35	19	7862864	28	0	
172.923	3	36	19	7859124	28	0	
174.923	3	37	19	8575207	28	0	
176.923	3	38	19	8842494	28	0	
178.923	3	39	19	8878738	28	0	
180.923	3	40	19	8311916	28	0	
182.923	3	41	19	7987778	28	0	
184.923	3	42	19	6663748	28	0	
186.923	3	43	19	7479559	28	0	
188.923	3	44	19	7486371	28	0	
190.923	3	45	19	8074984	28	0	
192.923	3	46	19	6604454	28	0	
194.923	3	47	19	7297887	28	0	
196.923	3	48	19	7531205	28	0	
198.923	3	49	19	7513881	28	0	
200.923	3	50	19	8220947	28	0	
202.923	3	51	19	8056010	28	0	
204.923	3	52	19	7541102	28	0	
206.923	3	53	19	7476891	28	0	
208.923	3	54	19	7351039	28	0	
210.923	3	55	19	7357710	28	0	
212.923	3	56	19	8397039	28	0	
214.923	3	57	19	8223610	28	0	
216.923	3	58	19	8452011	28	0	
218.923	3	59	19	8772672	28	0	
220.923	3	60	19	8505060	28	0	
222.923	3	61	19	8247741	28	0	
224.923	3	62	19	7825933	28	0	
226.923	3	63	19	8335261	28	0	
228.923	3	64	19	8052965	28	0	
230.923	3	65	19	8171811	28	0	
232.923	3	66	19	8206128	28	0	
234.923	3	67	19	8325840	28	0	
236.923	3	68	19	8230821	28	0	
238.923	3	69	19	8347100	28	0	
240.923	3	70	19	8266801	28	0	
242.923	3	71	19	8441991	28	0	
244.923	3	72	19	8017156	28	0	
246.923	3	73	19	8392667	28	0	
248.923	3	74	19	8159168	28	0	
250.923	3	75	19	8101997	28	0	
252.923	3	76	19	8456798	28	0	
254.923	3	77	19	7974696	28	0	
256.923	3	78	19	7381226	28	0	
258.923	3	79	19	7766968	28	0	
260.923	3	80	19	8314307	28	0	
262.923	3	81	19	8290068	28	0	
264.923	3	82	19	8204493	28	0	
266.923	3	83	19	7596247	28	0	
268.923	3	84	19	8239437	28	0	
270.923	3	85	19	6144346	28	0	
272.923	3	86	19	7031292	28	0	
274.923	3	87	19	7692201	28	0	
276.923	3	88	19	8524034	28	0	
278.923	3	89	19	7935075	28	0	
280.923	3	90	19	8473770	28	0	
282.923	3	91	19	8454942	28	0	
284.923	3	92	19	8277212	28	0	
286.923	3	93	19	8539521	28	0	
288.923	3	94	19	8248330	28	0	
290.923	3	95	19	6698907	28	0	
292.923	3	96	19	8657790	28	0	
294.923	3	97	19	8410498	28	0	
296.923	3	98	19	8199815	28	0	
298.923	3	99	19	7736291	28	0	
300.923	3	100	19	8114328	28	0	
302.923	3	101	19	7534314	28	0	
304.923	3	102	19	7514036	28	0	
306.923	3	103	19	7995962	28	0	
308.923	3	104	19	8297586	28	0	
310.923	3	105	19	8555598	28	0	
312.923	3	106	19	8713041	28	0	
314.923	3	107	19	7802313	28	0	
316.923	3	108	19	7919752	28	0	
318.923	3	109	19	8074020	28	0	
320.923	3	110	19	7833337	28	0	
322.923	3	111	19	7078375	28	0	
324.923	3	112	19	8670340	28	0	
326.923	3	113	19	8573376	28	0	
328.923	3	114	19	8171667	28	0	
330.923	3	115	19	7576693	28	0	
332.923	3	116	19	8248312	28	0	
334.923	3	117	19	7494579	28	0	
336.923	3	118	19	7576111	28	0	
338.923	3	119	19	7505778	28	0	
340.923	3	120	19	7700693	28	0	
342.923	3	121	19	8805364	28	0	
344.923	3	122	19	8614184	28	0	
346.923	3	123	19	8522746	28	0	
348.923	3	124	19	8405708	28	0	
350.923	3	125	19	7934425	28	0	
352.923	3	126	19	8392817	28	0	
354.923	3	127	19	8073679	28	0	
356.923	3	128	19	7967934	28	0	
358.923	3	129	19	8579357	28	0	
360.923	3	130	19	8319389	28	0	
362.923	3	131	19	7904908	28	0	
364.923	3	132	19	7958449	28	0	
366.923	3	133	19	8214703	28	0	
368.923	3	134	19	8337385	28	0	
370.923	3	135	19	8750695	28	0	
372.923	3	136	19	8826552	28	0	
374.923	3	137	19	8407385	28	0	
376.923	3	138	19	8198517	28	0	
378.923	3	139	19	8592499	28	0	
380.923	3	140	19	8521421	28	0	
382.923	3	141	19	8441202	28	0	
384.923	3	142	19	8424120	28	0	
386.923	3	143	19	7904940	28	0	
388.923	3	144	19	8047471	28	0	
390.923	3	145	19	7784984	28	0	
392.923	3	146	19	8417924	28	0	
394.923	3	147	19	8298746	28	0	
396.923	3	148	19	7937001	28	0	
398.923	3	149	19	8227923	28	0	
400.923	3	150	19	8513308	28	0	
402.923	3	151	19	8783176	28	0	
404.923	3	152	19	8733456	28	0	
406.923	3	153	19	8343224	28	0	
408.923	3	154	19	8403316	28	0	
410.923	3	155	19	8395737	28	0	
412.923	3	156	19	8632047	28	0	
414.923	3	157	19	8626344	28	0	
416.923	3	158	19	8418414	28	0	
418.923	3	159	19	8473682	28	0	
420.923	3	160	19	8649886	28	0	
422.923	3	161	19	7917231	28	0	
424.923	3	162	19	8432801	28	0	
426.923	3	163	19	8653899	28	0	
428.923	3	164	19	8420768	28	0	
430.923	3	165	19	8299181	28	0	
432.923	3	166	19	7948533	28	0	
434.923	3	167	19	8330859	28	0	
436.923	3	168	19	8066869	28	0	
438.923	3	169	19	7166427	28	0	
440.923	3	170	19	8336579	28	0	
442.923	3	171	19	8715387	28	0	
444.923	3	172	19	8833107	28	0	
446.923	3	173	19	8810797	28	0	
448.923	3	174	19	8783755	28	0	
450.923	3	175	19	8872647	28	0	
452.923	3	176	19	8749745	28	0	
454.923	3	177	19	8756172	28	0	
456.923	3	178	19	8676438	28	0	
458.923	3	179	19	8862224	28	0	
460.923	3	180	19	8781870	28	0	
462.923	3	181	19	8522818	28	0	
464.923	3	182	19	8857762	28	0	
466.923	3	183	19	8835424	28	0	
468.923	3	184	19	8786884	28	0	
470.923	3	185	19	8576480	28	0	
472.923	3	186	19	8367275	28	0	
474.923	3	187	19	8186304	28	0	
476.923	3	188	19	8359984	28	0	
478.923	3	189	19	8246020	28	0	
480.923	3	190	19	8288960	28	0	
482.923	3	191	19	7009101	28	0	
484.923	3	192	19	7458902	28	0	
486.923	3	193	19	6677891	28	0	
488.923	3	194	19	7392545	28	0	
490.923	3	195	19	7918023	28	0	
492.923	3	196	19	8007830	28	0	
494.923	3	197	19	8128825	28	0	
496.923	3	198	19	7579000	28	0	
498.923	3	199	19	8234443	28	0	
500.923	3	200	19	6904114	28	0	
502.923	3	201	19	7565524	28	0	
504.923	3	202	19	8242521	28	0	
506.923	3	203	19	8070501	28	0	
508.923	3	204	19	8057335	28	0	
510.923	3	205	19	8246839	28	0	
512.923	3	206	19	8078909	28	0	
514.923	3	207	19	8270917	28	0	
516.923	3	208	19	7948738	28	0	
518.923	3	209	19	7866091	28	0	
520.923	3	210	19	8786689	28	0	
522.923	3	211	19	8850038	28	0	
524.923	3	212	19	8334169	28	0	
526.923	3	213	19	8734796	28	0	
528.923	3	214	19	7956713	28	0	
530.923	3	215	19	8694203	28	0	
532.923	3	216	19	8903135	28	0	
534.923	3	217	19	8286075	28	0	
536.923	3	218	19	8393021	28	0	
538.923	3	219	19	7680765	28	0	
540.923	3	220	19	7188042	28	0	
542.923	3	221	19	8612061	28	0	
544.923	3	222	19	8637020	28	0	
546.923	3	223	19	7365011	28	0	
548.923	3	224	19	7242486	28	0	
550.923	3	225	19	7935742	28	0	
552.923	3	226	19	8050995	28	0	
554.923	3	227	19	6489547	28	0	
556.923	3	228	19	8002000	28	0	
558.923	3	229	19	8233788	28	0	
560.923	3	230	19	7707085	28	0	
562.923	3	231	19	8723675	28	0	
564.923	3	232	19	8857186	28	0	
566.923	3	233	19	8767027	28	0	
568.923	3	234	19	8686054	28	0	
570.923	3	235	19	8404038	28	0	
572.923	3	236	19	7570839	28	0	
574.923	3	237	19	8008360	28	0	
576.923	3	238	19	7556951	28	0	
578.923	3	239	19	8040550	28	0	
580.923	3	240	19	7845218	28	0	
582.923	3	241	19	6938320	28	0	
584.923	3	242	19	7829257	28	0	
586.923	3	243	19	7631261	28	0	
588.923	3	244	19	7369143	28	0	
590.923	3	245	19	8531808	28	0	
592.923	3	246	19	7791319	28	0	
594.923	3	247	19	7843868	28	0	
596.923	3	248	19	7900958	28	0	
598.923	3	249	19	7985077	28	0	
600.923	3	250	19	8234073	28	0	
602.923	3	251	19	8384220	28	0	
604.923	3	252	19	8447482	28	0	
606.923	3	253	19	8621285	28	0	
608.923	3	254	19	8679783	28	0	
610.923	3	255	19	8529882	28	0	
612.923	3	256	19	8500417	28	0	
614.923	3	257	19	8576416	28	0	
616.923	3	258	19	8630224	28	0	
618.923	3	259	19	8617958	28	0	
620.923	3	260	19	8616755	28	0	
622.923	3	261	19	8705736	28	0	
624.923	3	262	19	8634793	28	0	
626.923	3	263	19	8566390	28	0	
628.923	3	264	19	8584692	28	0	
630.923	3	265	19	8693946	28	0	
632.923	3	266	19	8679127	28	0	
634.923	3	267	19	8684011	28	0	
636.923	3	268	19	8547454	28	0	
638.923	3	269	19	8674854	28	0	
640.923	3	270	19	8631268	28	0	
642.923	3	271	19	8629653	28	0	
644.923	3	272	19	8665135	28	0	
646.923	3	273	19	8626979	28	0	
648.923	3	274	19	8668472	28	0	
650.923	3	275	19	8734224	28	0	
652.923	3	276	19	8796054	28	0	
654.923	3	277	19	8834286	28	0	
656.923	3	278	19	8831035	28	0	
658.923	3	279	19	8822991	28	0	
660.923	3	280	19	8782135	28	0	
662.923	3	281	19	8682044	28	0	
664.923	3	282	19	8523956	28	0	
666.923	3	283	19	8358179	28	0	
668.923	3	284	19	8439206	28	0	
670.923	3	285	19	7502391	26	0	
672.923	3	286	19	7871871	24	0	
674.923	3	287	19	7720837	22	0	
676.923	3	288	19	7876140	20	0	
678.923	3	289	19	7648053	18	0	
680.923	3	290	19	4751647	16	0	
682.923	3	291	19	7179789	14	0	
684.923	3	292	19	6653880	12	0	
686.923	3	293	19	5682957	10	0	
688.923	3	294	19	7049082	8	0	
690.923	3	295	19	7280371	6	0	
692.923	3	296	19	7398488	4	0	
694.923	3	297	19	7393493	2	0	
696.923	3	298	19	4908271	0	0	
